"Date","Active"
"2016-03-25","431"
"2016-03-26","406"
"2016-03-27","395"
"2016-03-28","479"
"2016-03-29","575"
"2016-03-30","567"
"2016-03-31","509"
"2016-04-01","484"
"2016-04-02","427"
"2016-04-03","466"
"2016-04-04","566"
"2016-04-05","570"
"2016-04-06","561"
"2016-04-07","517"
"2016-04-08","514"
"2016-04-09","425"
"2016-04-10","450"
"2016-04-11","562"
"2016-04-12","562"
"2016-04-13","550"
"2016-04-14","586"
"2016-04-15","544"
"2016-04-16","483"
"2016-04-17","490"
"2016-04-18","610"
"2016-04-19","626"
"2016-04-20","640"
"2016-04-21","558"
"2016-04-22","522"
"2016-04-23","487"
"2016-04-24","484"
"2016-04-25","591"
"2016-04-26","632"
"2016-04-27","611"
"2016-04-28","564"
"2016-04-29","560"
"2016-04-30","491"
"2016-05-01","497"
"2016-05-02","599"
"2016-05-03","641"
"2016-05-04","616"
"2016-05-05","598"
"2016-05-06","565"
"2016-05-07","504"
"2016-05-08","517"
"2016-05-09","668"
"2016-05-10","655"
"2016-05-11","627"
"2016-05-12","611"
"2016-05-13","534"
"2016-05-14","501"
"2016-05-15","488"
"2016-05-16","617"
"2016-05-17","652"
"2016-05-18","665"
"2016-05-19","611"
"2016-05-20","566"
"2016-05-21","509"
"2016-05-22","536"
"2016-05-23","625"
"2016-05-24","679"
"2016-05-25","667"
"2016-05-26","607"
"2016-05-27","564"
"2016-05-28","470"
"2016-05-29","542"
"2016-05-30","571"
"2016-05-31","682"
"2016-06-01","693"
"2016-06-02","662"
"2016-06-03","599"
"2016-06-04","516"
"2016-06-05","547"
"2016-06-06","665"
"2016-06-07","686"
"2016-06-08","641"
"2016-06-09","630"
"2016-06-10","612"
"2016-06-11","541"
"2016-06-12","550"
"2016-06-13","666"
"2016-06-14","691"
"2016-06-15","672"
"2016-06-16","683"
"2016-06-17","612"
"2016-06-18","540"
"2016-06-19","564"
"2016-06-20","657"
"2016-06-21","713"
"2016-06-22","660"
"2016-06-23","608"
"2016-06-24","556"
"2016-06-25","537"
"2016-06-26","522"
"2016-06-27","661"
"2016-06-28","692"
"2016-06-29","659"
"2016-06-30","656"
"2016-07-01","593"
"2016-07-02","534"
"2016-07-03","539"
"2016-07-04","634"
"2016-07-05","679"
"2016-07-06","695"
"2016-07-07","603"
"2016-07-08","608"
"2016-07-09","514"
"2016-07-10","557"
"2016-07-11","704"
"2016-07-12","720"
"2016-07-13","677"
"2016-07-14","641"
"2016-07-15","622"
"2016-07-16","528"
"2016-07-17","550"
"2016-07-18","696"
"2016-07-19","696"
"2016-07-20","674"
"2016-07-21","653"
"2016-07-22","589"
"2016-07-23","562"
"2016-07-24","589"
"2016-07-25","692"
"2016-07-26","688"
"2016-07-27","667"
"2016-07-28","660"
"2016-07-29","609"
"2016-07-30","552"
"2016-07-31","583"
"2016-08-01","694"
"2016-08-02","731"
"2016-08-03","714"
"2016-08-04","667"
"2016-08-05","601"
"2016-08-06","544"
"2016-08-07","573"
"2016-08-08","676"
"2016-08-09","705"
"2016-08-10","703"
"2016-08-11","672"
"2016-08-12","574"
"2016-08-13","551"
"2016-08-14","571"
"2016-08-15","698"
"2016-08-16","723"
"2016-08-17","730"
"2016-08-18","668"
"2016-08-19","624"
"2016-08-20","568"
"2016-08-21","615"
"2016-08-22","684"
"2016-08-23","724"
"2016-08-24","748"
"2016-08-25","657"
"2016-08-26","613"
"2016-08-27","581"
"2016-08-28","604"
"2016-08-29","704"
"2016-08-30","711"
"2016-08-31","794"
"2016-09-01","721"
"2016-09-02","658"
"2016-09-03","578"
"2016-09-04","615"
"2016-09-05","719"
"2016-09-06","755"
"2016-09-07","738"
"2016-09-08","757"
"2016-09-09","660"
"2016-09-10","603"
"2016-09-11","629"
"2016-09-12","807"
"2016-09-13","796"
"2016-09-14","799"
"2016-09-15","720"
"2016-09-16","671"
"2016-09-17","613"
"2016-09-18","648"
"2016-09-19","769"
"2016-09-20","786"
"2016-09-21","769"
"2016-09-22","699"
"2016-09-23","654"
"2016-09-24","608"
"2016-09-25","658"
"2016-09-26","813"
"2016-09-27","778"
"2016-09-28","769"
"2016-09-29","730"
"2016-09-30","703"
"2016-10-01","649"
"2016-10-02","636"
"2016-10-03","797"
"2016-10-04","795"
"2016-10-05","718"
"2016-10-06","710"
"2016-10-07","717"
"2016-10-08","621"
"2016-10-09","638"
"2016-10-10","746"
"2016-10-11","840"
"2016-10-12","811"
"2016-10-13","757"
"2016-10-14","713"
"2016-10-15","622"
"2016-10-16","656"
"2016-10-17","811"
"2016-10-18","846"
"2016-10-19","827"
"2016-10-20","756"
"2016-10-21","728"
"2016-10-22","637"
"2016-10-23","670"
"2016-10-24","826"
"2016-10-25","842"
"2016-10-26","823"
"2016-10-27","806"
"2016-10-28","751"
"2016-10-29","603"
"2016-10-30","664"
"2016-10-31","793"
"2016-11-01","834"
"2016-11-02","855"
"2016-11-03","762"
"2016-11-04","669"
"2016-11-05","707"
"2016-11-06","724"
"2016-11-07","820"
"2016-11-08","884"
"2016-11-09","835"
"2016-11-10","799"
"2016-11-11","760"
"2016-11-12","633"
"2016-11-13","696"
"2016-11-14","841"
"2016-11-15","902"
"2016-11-16","877"
"2016-11-17","826"
"2016-11-18","774"
"2016-11-19","703"
"2016-11-20","715"
"2016-11-21","832"
"2016-11-22","833"
"2016-11-23","860"
"2016-11-24","770"
"2016-11-25","748"
"2016-11-26","694"
"2016-11-27","754"
"2016-11-28","898"
"2016-11-29","933"
"2016-11-30","806"
"2016-12-01","848"
"2016-12-02","819"
"2016-12-03","790"
"2016-12-04","747"
"2016-12-05","905"
"2016-12-06","922"
"2016-12-07","923"
"2016-12-08","854"
"2016-12-09","783"
"2016-12-10","716"
"2016-12-11","720"
"2016-12-12","891"
"2016-12-13","641"
"2016-12-14","625"
"2016-12-15","1000"
"2016-12-16","845"
"2016-12-17","753"
"2016-12-18","726"
"2016-12-19","943"
"2016-12-20","950"
"2016-12-21","857"
"2016-12-22","768"
"2016-12-23","698"
"2016-12-24","594"
"2016-12-25","518"
"2016-12-26","672"
"2016-12-27","849"
"2016-12-28","825"
"2016-12-29","790"
"2016-12-30","750"
"2016-12-31","619"
"2017-01-01","601"
"2017-01-02","812"
"2017-01-03","905"
"2017-01-04","906"
"2017-01-05","862"
"2017-01-06","862"
"2017-01-07","732"
"2017-01-08","803"
"2017-01-09","898"
"2017-01-10","964"
"2017-01-11","946"
"2017-01-12","904"
"2017-01-13","877"
"2017-01-14","804"
"2017-01-15","835"
"2017-01-16","941"
"2017-01-17","1033"
"2017-01-18","1008"
"2017-01-19","958"
"2017-01-20","891"
"2017-01-21","825"
"2017-01-22","797"
"2017-01-23","963"
"2017-01-24","973"
"2017-01-25","993"
"2017-01-26","885"
"2017-01-27","759"
"2017-01-28","793"
"2017-01-29","810"
"2017-01-30","969"
"2017-01-31","1054"
"2017-02-01","1028"
"2017-02-02","977"
"2017-02-03","797"
"2017-02-04","858"
"2017-02-05","857"
"2017-02-06","1001"
"2017-02-07","1054"
"2017-02-08","1046"
"2017-02-09","979"
"2017-02-10","922"
"2017-02-11","854"
"2017-02-12","882"
"2017-02-13","1019"
"2017-02-14","1036"
"2017-02-15","1019"
"2017-02-16","951"
"2017-02-17","917"
"2017-02-18","869"
"2017-02-19","871"
"2017-02-20","1034"
"2017-02-21","1057"
"2017-02-22","1024"
"2017-02-23","982"
"2017-02-24","961"
"2017-02-25","890"
"2017-02-26","939"
"2017-02-27","1018"
"2017-02-28","1077"
"2017-03-01","1100"
"2017-03-02","1038"
"2017-03-03","951"
"2017-03-04","869"
"2017-03-05","993"
"2017-03-06","1071"
"2017-03-07","1122"
"2017-03-08","1076"
"2017-03-09","1031"
"2017-03-10","1025"
"2017-03-11","863"
"2017-03-12","900"
"2017-03-13","1101"
"2017-03-14","1144"
"2017-03-15","1148"
"2017-03-16","1075"
"2017-03-17","983"
"2017-03-18","869"
"2017-03-19","947"
"2017-03-20","1113"
"2017-03-21","1169"
"2017-03-22","1126"
"2017-03-23","1066"
"2017-03-24","1014"
"2017-03-25","928"
"2017-03-26","988"
"2017-03-27","1116"
"2017-03-28","1259"
"2017-03-29","1157"
"2017-03-30","1120"
"2017-03-31","1027"
